{
  "status": "ok",
  "totalResults": 10,
  "articles": [
    {
      "source": {
        "id": "abc-news",
        "name": "ABC News"
      },
      "author": "ABC News",
      "title": "Merkel set for 4th term after Social Democrats OK coalition",
      "description": "Germany's Social Democratic Party said Sunday its members have voted in favor of joining a coalition with Angela Merkel's conservative bloc, clearing the last major hurdle to the formation of a new government and a fourth term for the veteran German chancello…",
      "url": "http://abcnews.go.com/International/wireStory/germanys-social-democrats-coalition-merkel-53498283",
      "urlToImage": "https://s.abcnews.com/images/International/WireAP_99b91b2b8e31406bb0e5e9b10cbe7224_16x9_992.jpg",
      "publishedAt": "2018-03-04T00:00:00Z"
    },
    {
      "source": {
        "id": "abc-news",
        "name": "ABC News"
      },
      "author": "ABC News",
      "title": "South Korean envoys to North Korea aim at US talks",
      "description": "South Korean President Moon Jae-in is planning to send special envoys to North Korea on Monday to encourage talks between Pyongyang and Washington.\nNational Intelligence Chief Suh Hoon and National Security Office head Chung Euri-yong will lead a five-member …",
      "url": "http://abcnews.go.com/International/south-korean-envoys-north-korea-aim-us-talks/story?id=53497209",
      "urlToImage": "https://s.abcnews.com/images/International/korean-relations-olympic-12-gty-jrl-180224_2_16x9_992.jpg",
      "publishedAt": "2018-03-04T00:00:00Z"
    },
    {
      "source": {
        "id": "abc-news",
        "name": "ABC News"
      },
      "author": "ABC News",
      "title": "Trump puts aside the feud with media for a night at Gridiron",
      "description": "President Donald Trump engaged in a good-natured duel of one-liners with political rivals and the press at the annual Gridiron Dinner this weekend, largely putting aside his ongoing criticism of the media for a night. Trump dished out sharp one-liners through…",
      "url": "http://abcnews.go.com/Politics/wireStory/trump-trades-good-natured-barbs-media-gridiron-53497210",
      "urlToImage": "https://s.abcnews.com/images/Politics/WireAP_d9765169854d49d19e6b884cee73ff89_16x9_992.jpg",
      "publishedAt": "2018-03-04T00:00:00Z"
    },
    {
      "source": {
        "id": "abc-news",
        "name": "ABC News"
      },
      "author": "ABC News",
      "title": "Central Michigan University student used father's gun to allegedly kill parents",
      "description": "The gun a Central Michigan University student allegedly used to kill his parents on campus Friday belonged to his father, an Illinois police officer, officials said.",
      "url": "http://abcnews.go.com/US/central-michigan-university-student-fathers-gun-allegedly-kill/story?id=53484110",
      "urlToImage": "https://s.abcnews.com/images/US/central-michigan-university-shooting-ap-ml-180302_16x9_992.jpg",
      "publishedAt": "2018-03-03T00:00:00Z"
    },
    {
      "source": {
        "id": "abc-news",
        "name": "ABC News"
      },
      "author": "ABC News",
      "title": "Florida lawmakers debate school-safety bill in rare session",
      "description": "The Florida Senate agreed to advance a bill that would increase school safety and restrict gun purchases during a rare Saturday session that often turned into a debate on gun control and arming teachers in the aftermath of last month's Parkland school shootin…",
      "url": "http://abcnews.go.com/Politics/wireStory/florida-lawmakers-school-safety-bill-rare-session-53489574",
      "urlToImage": "https://s.abcnews.com/images/US/parkland-vigil-01-ap-mt-180228_3x2_992.jpg",
      "publishedAt": "2018-03-03T00:00:00Z"
    },
    {
      "source": {
        "id": "abc-news",
        "name": "ABC News"
      },
      "author": "ABC News",
      "title": "Trump says maybe US will have a president for life someday",
      "description": "President Donald Trump says he thinks it's great that China's president now holds that office for life and muses that maybe the U.S. will do the same someday. Trump's remarks were met with laughter and applause during a luncheon for Republican donors Saturday…",
      "url": "http://abcnews.go.com/Politics/wireStory/trump-us-president-life-someday-53493624",
      "urlToImage": "https://s.abcnews.com/images/Politics/WireAP_7f04f67de5b04818a794dfc099b19c33_16x9_992.jpg",
      "publishedAt": "2018-03-03T00:00:00Z"
    },
    {
      "source": {
        "id": "abc-news",
        "name": "ABC News"
      },
      "author": "ABC News",
      "title": "Electrolux halts Tennessee project after tariff announcement",
      "description": "Electrolux says its plans for a $250 million plant expansion in Tennessee are on hold, and the Swedish appliance maker is citing President Donald Trump's tariff announcement as the reason. Electrolux's investment plans included modernizing and adding 400,000 …",
      "url": "http://abcnews.go.com/US/wireStory/electrolux-halts-tennessee-project-tariff-announcement-53488664",
      "urlToImage": null,
      "publishedAt": "2018-03-03T00:00:00Z"
    },
    {
      "source": {
        "id": "abc-news",
        "name": "ABC News"
      },
      "author": "ABC News",
      "title": "Secret Service responds to man who shot himself near White House",
      "description": "The Secret Service said it is responding to reports of shots fired.",
      "url": "http://abcnews.go.com/US/individual-allegedly-suffers-inflicted-gunshot-wound-white-house/story?id=53486685",
      "urlToImage": "https://s.abcnews.com/images/US/breaking-news-graphic1-abc-ml-171211_16x9_992.jpg",
      "publishedAt": "2018-03-03T00:00:00Z"
    },
    {
      "source": {
        "id": "abc-news",
        "name": "ABC News"
      },
      "author": "ABC News",
      "title": "Meet the oldest Oscar nominee",
      "description": "The oldest Oscar nominee, Agnes Varda, says she's enjoying the title.",
      "url": "http://abcnews.go.com/GMA/Culture/89-year-agnes-varda-welcomes-title-oldest-oscar/story?id=53466684",
      "urlToImage": "https://s.abcnews.com/images/Entertainment/agnes-varda-01-gty-jef-180302_16x9_992.jpg",
      "publishedAt": "2018-03-02T00:00:00Z"
    },
    {
      "source": {
        "id": "abc-news",
        "name": "ABC News"
      },
      "author": "ABC News",
      "title": "Predicting who will take home an Oscar",
      "description": "Peter Travers, the host of ABC News show \"Popcorn with Peter Travers,\" predicts women will be big winners at the Oscars this year.",
      "url": "http://abcnews.go.com/GMA/Culture/oscar-predicting-win-academy-awards-sunday/story?id=53438132",
      "urlToImage": "https://s.abcnews.com/images/Entertainment/fall-movie-preview-three-billboards-ht-jef-170905_16x9_992.jpg",
      "publishedAt": "2018-03-01T00:00:00Z"
    }
  ]
}